Ferrari:360 Challenge:2004:coupe
Ferrari:360 Spider:2001-2004:convertible
Ferrari:360:2001-2004:coupe
Ferrari:430 Scuderia:2008-2009:coupe
Ferrari:456M:2001-2003:coupe
Ferrari:458 Italia:2010:coupe
Ferrari:458 Italia Spider:2012:convertible
Ferrari:550 Barchetta:2001:convertible
Ferrari:550 Maranello:2001:coupe
Ferrari:575M Maranello:2002-2004:coupe
Ferrari:599 Fiorano:2007-2010:coupe
Ferrari:612 Scaglietti:2005-2010:coupe
Ferrari:California:2009-2010:convertible
Ferrari:Enzo:2003:coupe
Ferrari:F430 Challenge:2006-2007:coupe
Ferrari:F430 Spider:2005-2009:convertible
Ferrari:F430:2005-2009:coupe
Ferrari:FF:2012:coupe
Ferrari:Superamerica:2005:convertible
FIAT:500 Convertible:2012:convertible
FIAT:500 Hatchback:2012:hatchback
Fisker:Karma Sedan:2012:sedan,hybrid/electric
Ford:Aerostar:1990-1997:van/minivan
Ford:Aspire:1994-1997:hatchback
Ford:Bronco:1990-1996:suv
Ford:Bronco II:1990:suv
Ford:Contour:1995-2000:sedan
Ford:Contour SVT:1998-2000:sedan
Ford:Crown Victoria:1992-2010:sedan
Ford:E-150:1990-1998:van/minivan
Ford:E-250:1990-1998:van/minivan
Ford:E-350:1990-1998:van/minivan
Ford:E-Series:2010-2011:van/minivan
Ford:E-Series Wagon:2010-2011:van/minivan
Ford:Econoline Cargo:1999-2009:van/minivan
Ford:Econoline Wagon:1999-2009:van/minivan
Ford:Edge:2007-2012:crossover,suv
Ford:Escape Hybrid:2005-2010,2012:crossover,hybrid/electric,suv
Ford:Escape:2001-2012:crossover,suv
Ford:Escort Coupe:1998-2003:coupe
Ford:Escort Hatchback:1990-1996:hatchback
Ford:Escort Sedan:1992-2000:sedan
Ford:Escort Wagon:1990-1999:wagon
Ford:Excursion Diesel:2002-2005:diesel,suv
Ford:Excursion:2000-2005:suv
Ford:Expedition:1997-2012:suv
Ford:Expedition EL:2007-2009:suv
Ford:Explorer:1991-2012:suv
Ford:Explorer Sport:2001-2003:suv
Ford:Explorer Sport Trac:2001-2010:crossover,truck
Ford:F-150 Extended Cab:1990-2000:truck
Ford:F-150 Harley-Davidson:2002-2003:truck
Ford:F-150 Regular Cab:1990-2011:truck
Ford:F-150 SVT Lightning:1993-1995,1999-2004:truck
Ford:F-150 SVT Raptor:2010-2011:truck
Ford:F-150 SuperCab:2001-2011:truck
Ford:F-150 SuperCrew:2001-2011:truck
Ford:F-150 Heritage Regular Cab:2004:truck
Ford:F-150 Heritage SuperCab:2004:truck
Ford:F-250 Crew Cab:1996-1997:truck
Ford:F-250 Extended Cab:1990-1999:truck
Ford:F-250 Regular Cab:1990-1999:truck
Ford:F-250 Super Duty Crew Cab:1999-2012:truck
Ford:F-250 Super Duty Extended Cab:1999-2000:truck
Ford:F-250 Super Duty Regular Cab:1999-2012:truck
Ford:F-250 Super Duty SuperCab:2001-2012:truck
Ford:F-350 Crew Cab:1990-1997:truck
Ford:F-350 Extended Cab:1990-1997:truck
Ford:F-350 Regular Cab:1990-1997:truck
Ford:F-350 Super Duty Crew Cab:1999-2012:truck
Ford:F-350 Super Duty Extended Cab:1999-2000:truck
Ford:F-350 Super Duty Regular Cab:1999-2012:truck
Ford:F-350 Super Duty SuperCab:2001-2012:truck
Ford:F-450 Super Duty:2008-2012:diesel,truck
Ford:Festiva:1990-1993:hatchback
Ford:Fiesta Hatchback:2011-2012:hatchback
Ford:Fiesta Sedan:2011-2012:sedan
Ford:Five Hundred:2005-2007:sedan
Ford:Flex:2009-2012:crossover,wagon
Ford:Focus Coupe:2008-2010:coupe
Ford:Focus Hatchback:2000-2007,2012:hatchback
Ford:Focus SVT:2002-2004:hatchback
Ford:Focus Sedan:2000-2012:sedan
Ford:Focus Wagon:2000-2007:wagon
Ford:Freestar:2004-2007:van/minivan
Ford:Freestyle:2005-2007:crossover,wagon
Ford:Fusion:2006-2012:sedan
Ford:Fusion Hybrid:2010,2012:hybrid/electric,sedan
Ford:GT Coupe:2005-2006:coupe
Ford:LTD Crown Victoria Sedan:1990-1991:sedan
Ford:LTD Crown Victoria Wagon:1990-1991:wagon
Ford:Mustang Boss 302:2012:coupe
Ford:Mustang Bullitt:2001:coupe
Ford:Mustang Convertible:1990-2012:convertible
Ford:Mustang Coupe:1990-2012:coupe
Ford:Mustang Hatchback:1990-1993:hatchback
Ford:Mustang Mach 1 Premium:2003-2004:coupe
Ford:Mustang SVT Cobra:2001,2003-2004:coupe
Ford:Mustang SVT Cobra 10th Anniversary:2003:coupe
Ford:Mustang SVT Cobra Convertible:1994-2000:convertible
Ford:Mustang SVT Cobra Coupe:1993-2000:coupe
Ford:Probe:1990-1997:hatchback
Ford:Ranger Extended Cab:1990-2000:truck
Ford:Ranger Regular Cab:1990-2011:truck
Ford:Ranger SuperCab:2001-2011:truck
Ford:Shelby GT500 Convertible:2007-2012:convertible
Ford:Shelby GT500 Coupe:2007-2012:coupe
Ford:Taurus SHO:1990-1999,2010-2012:sedan
Ford:Taurus Sedan:1990-2012:sedan
Ford:Taurus Wagon:1990-2005:wagon
Ford:Taurus X Wagon:2008-2009:crossover,wagon
Ford:Tempo Coupe:1990-1994:coupe
Ford:Tempo Sedan:1990-1994:sedan
Ford:Thunderbird Convertible:2002-2005:convertible
Ford:Thunderbird Coupe:1990-1997:coupe
Ford:Thunderbird SC:1990-1995:coupe
Ford:Transit Connect:2010-2012:van/minivan
Ford:Windstar:1995-2003:van/minivan
Ford:Windstar Cargo:1995-2003:van/minivan
